<?xml version="1.0" encoding="utf-8"?>
<!-- Generator: Adobe Illustrator 16.0.0, SVG Export Plug-In . SVG Version: 6.00 Build 0)  -->
<!DOCTYPE svg PUBLIC "-//W3C//DTD SVG 1.1//EN" "http://www.w3.org/Graphics/SVG/1.1/DTD/svg11.dtd">
<svg version="1.1" xmlns="http://www.w3.org/2000/svg" xmlns:xlink="http://www.w3.org/1999/xlink" x="0px" y="0px"
	 width="29.387px" height="29.387px" viewBox="0 0 29.387 29.387" enable-background="new 0 0 29.387 29.387" xml:space="preserve">
<g id="Initial_Proposal" display="none">
	<g id="Webdesign01" display="inline">
	</g>
	<g id="Layer_4" display="inline">
	</g>
	<g id="Layer_5" display="inline">
	</g>
	<g id="_x31_280" display="inline">
	</g>
	<g id="Icons" display="inline">
	</g>
	<g id="For_Mobile_375" display="inline">
	</g>
	<g id="Layer_16" display="inline">
	</g>
</g>
<g id="Iphone_X_Mockup" display="none">
</g>
<g id="Images">
</g>
<g id="Main_page">
</g>
<g id="MainPageIcons">
	<path fill="#FFFFFF" d="M25.987,0.001H3.398C1.525,0.001,0,1.524,0,3.399v22.588c0,1.875,1.525,3.4,3.398,3.4h22.589
		c1.874,0,3.399-1.525,3.399-3.4V3.399C29.387,1.524,27.861,0.001,25.987,0.001z M27.645,25.987c0,0.914-0.743,1.658-1.658,1.658
		H18.98v-9.869h3.308l0.71-4.086H18.98c0,0,0-0.963,0-2.889c0-0.635,0.011-1.271,0.581-1.537c0.795-0.369,3.437-0.303,3.437-0.303
		V5.474c0,0-0.461,0-4.22,0c-3.761,0-4.256,3.186-4.256,4.672c0,1.484,0,3.51,0,3.51h-3.512v4.121h3.681v9.869H3.398
		c-0.914,0-1.656-0.744-1.656-1.658V3.399c0-0.914,0.742-1.658,1.656-1.658h22.589c0.915,0,1.658,0.744,1.658,1.658V25.987z"/>
</g>
<g id="Main_Menu__x28_Expanded_x29_">
</g>
<g id="Mini_Cart__x28_Expanded_x29_">
</g>
<g id="Product_Gallery_Page__x28_ColorExpanded_x29_">
</g>
<g id="Product_Gallery_Page__x28_PriceRangeExpanded_x29_">
</g>
<g id="Product_Gallery_Page__x28_MenuLinksExpanded_x29_">
</g>
<g id="Search_Page__x28_LeftSectionUnexpanded_x29_">
</g>
<g id="CartPage">
</g>
<g id="Product_Page__x28_Review_Tab_x29_">
</g>
<g id="Product_Page">
</g>
<g id="Mobile_Full_375x---">
</g>
<g id="Mobile_Links">
</g>
<g id="Layer_24">
</g>
<g id="Layer_25">
	<defs>
		<rect id="SVGID_947_" x="-297.271" y="-977.006" width="1100" height="400"/>
	</defs>
	<clipPath id="SVGID_2_">
		<use xlink:href="#SVGID_947_"  overflow="visible"/>
	</clipPath>
</g>
<g id="Layer_26">
	<defs>
		<rect id="SVGID_952_" x="-297.47" y="1190.582" width="1100" height="400"/>
	</defs>
	<clipPath id="SVGID_4_">
		<use xlink:href="#SVGID_952_"  overflow="visible"/>
	</clipPath>
</g>
<g id="guide">
</g>
</svg>
